loss,accuracy,val_loss,val_accuracy
2.066357374191284,0.5087500214576721,3.6925277709960938,0.20333333313465118
1.0678757429122925,0.7208333611488342,3.3674309253692627,0.2762500047683716
0.9876106977462769,0.7108333110809326,2.7440149784088135,0.3504166603088379
1.2278121709823608,0.6516666412353516,1.9214762449264526,0.46958333253860474
0.9423616528511047,0.7279166579246521,1.1201753616333008,0.6920833587646484
0.912763237953186,0.7383333444595337,0.9986268281936646,0.7070833444595337
0.6562566161155701,0.8108333349227905,0.755610466003418,0.7791666388511658
0.6309371590614319,0.8145833611488342,0.8232517242431641,0.7583333253860474
0.5484818816184998,0.840416669845581,0.7749908566474915,0.7866666913032532
0.7547295689582825,0.7808333039283752,0.5048955678939819,0.846666693687439
0.6111827492713928,0.8316666483879089,0.7877280116081238,0.7745833396911621
0.6276505589485168,0.8183333277702332,0.6353985667228699,0.8233333230018616
0.4655429720878601,0.8545833230018616,0.5301191210746765,0.8383333086967468
0.6832789778709412,0.8020833134651184,0.5555711388587952,0.846666693687439
0.7356907725334167,0.7870833277702332,0.4162583351135254,0.8812500238418579
0.484671026468277,0.85916668176651,0.4298301637172699,0.875
0.6783771514892578,0.8025000095367432,0.5035145878791809,0.8645833134651184
0.5473846197128296,0.84375,0.45002511143684387,0.8733333349227905
0.6007347106933594,0.8291666507720947,0.44906458258628845,0.8587499856948853
0.44340118765830994,0.8641666769981384,0.4387679994106293,0.8791666626930237
