loss,accuracy,val_loss,val_accuracy
2.9230551719665527,0.3707291781902313,4.006258010864258,0.1993750035762787
1.8867504596710205,0.5790625214576721,3.853614091873169,0.23208333551883698
1.4980326890945435,0.6260416507720947,3.9157779216766357,0.22968749701976776
1.327226996421814,0.6489583253860474,3.8396313190460205,0.2201041728258133
1.2113158702850342,0.6723958253860474,3.724925994873047,0.2395833283662796
1.2648496627807617,0.652916669845581,3.7568798065185547,0.22718749940395355
1.0242719650268555,0.7167708277702332,3.916912078857422,0.18718749284744263
1.0943125486373901,0.6985416412353516,3.776500701904297,0.18718749284744263
1.0777405500411987,0.7006250023841858,3.893545627593994,0.1328125
0.7981936931610107,0.762708306312561,3.7901570796966553,0.14479166269302368
0.8981418609619141,0.7484375238418579,3.481220006942749,0.21302083134651184
0.8667006492614746,0.7521874904632568,3.2099242210388184,0.26614582538604736
0.7673690915107727,0.776354193687439,3.090519666671753,0.2903124988079071
0.7853103876113892,0.7758333086967468,2.843930721282959,0.32104167342185974
0.7257310748100281,0.7930208444595337,2.4553730487823486,0.39125001430511475
0.7246106863021851,0.7902083396911621,2.190964460372925,0.44072917103767395
0.664297342300415,0.8055208325386047,1.823655366897583,0.5239583253860474
0.6788541674613953,0.7983333468437195,1.4359443187713623,0.6154166460037231
0.58414226770401,0.8262500166893005,1.2048490047454834,0.6739583611488342
0.5513445138931274,0.8376041650772095,0.9860397577285767,0.7179166674613953
