loss,accuracy,val_loss,val_accuracy
1.6368380784988403,0.560546875,2.371945381164551,0.35546875
1.476353883743286,0.5888671875,1.7362098693847656,0.5263671875
1.0294599533081057,0.7197265625,1.4854013919830322,0.5595703125
1.2748562097549438,0.6328125,1.4459888935089111,0.6123046875
0.976078450679779,0.703125,1.4121476411819458,0.58203125
1.211968183517456,0.6484375,1.2659412622451782,0.62109375
0.8907313942909241,0.75390625,1.238342523574829,0.6298828125
1.048802614212036,0.689453125,1.0771763324737549,0.6552734375
0.8159403800964355,0.7470703125,1.181676149368286,0.66796875
0.8873993158340454,0.734375,0.950588047504425,0.701171875
1.9872817993164065,0.490234375,1.9866280555725095,0.478515625
1.1125965118408203,0.6630859375,1.4762645959854126,0.5703125
1.03264057636261,0.69921875,1.2211380004882812,0.650390625
1.0764352083206177,0.7001953125,1.33628511428833,0.6142578125
0.8836939334869385,0.72265625,1.1555359363555908,0.6650390625
0.7171250581741333,0.78515625,1.1269283294677734,0.658203125
1.032395601272583,0.7021484375,1.0459315776824951,0.7001953125
0.9159914255142212,0.73828125,1.0465095043182373,0.703125
0.8607891201972961,0.748046875,0.9223639369010924,0.71484375
0.7049012780189514,0.78125,0.8979113101959229,0.734375
1.5375910997390747,0.556640625,2.231717824935913,0.3994140625
1.3194341659545898,0.6455078125,1.5274746417999268,0.5595703125
1.2228844165802002,0.64453125,1.4339771270751953,0.5732421875
1.26193106174469,0.6220703125,1.2671492099761963,0.630859375
1.1876949071884155,0.65234375,1.1392836570739746,0.64453125
0.9813750982284546,0.7265625,1.174274206161499,0.6396484375
0.9347381591796875,0.7294921875,1.1263728141784668,0.671875
0.757527768611908,0.7783203125,0.9246937036514282,0.732421875
0.6219000816345215,0.8154296875,0.9309016466140747,0.7158203125
0.8541224598884583,0.7421875,1.0253698825836182,0.681640625
0.6091496348381042,0.8095703125,0.9908944964408875,0.7080078125
0.724559485912323,0.798828125,0.7713940739631653,0.7802734375
0.7581822276115417,0.767578125,0.6904429197311401,0.8115234375
0.8277434706687927,0.7666015625,0.7525220513343811,0.78515625
0.6906102895736694,0.7880859375,0.7428774833679199,0.78515625
0.7967268228530884,0.76953125,0.6841820478439331,0.7900390625
0.6675592660903931,0.79296875,0.6753520965576172,0.796875
0.6866302490234375,0.8037109375,0.7446723580360413,0.7744140625
0.735982358455658,0.7744140625,0.609878659248352,0.8203125
0.610116720199585,0.8251953125,0.5232523679733276,0.8544921875
0.6365131139755249,0.7939453125,0.5962035059928894,0.8349609375
0.606331467628479,0.81640625,0.6195731163024902,0.826171875
0.46538370847702026,0.8603515625,0.6394339799880981,0.8095703125
0.6000948548316956,0.833984375,0.5237468481063843,0.845703125
0.7048628926277161,0.791015625,0.5398381352424622,0.833984375
0.5760269165039062,0.8359375,0.5444999933242798,0.849609375
0.38297268748283386,0.8857421875,0.573206901550293,0.8408203125
0.5303201675415039,0.83984375,0.5070667862892151,0.8564453125
0.48193129897117615,0.8505859375,0.4972809851169586,0.865234375
0.5191202163696289,0.8359375,0.5531823635101318,0.8330078125
0.5839878916740417,0.822265625,0.48017406463623047,0.869140625
0.5607172846794128,0.8427734375,0.5094238519668579,0.849609375
0.642075777053833,0.8115234375,0.5673424601554871,0.8486328125
0.48158711194992065,0.8642578125,0.5459803938865662,0.8388671875
0.4781334102153778,0.8544921875,0.4856559932231903,0.8701171875
0.5355459451675415,0.8466796875,0.5081406235694885,0.84375
0.4662896692752838,0.8505859375,0.4881112575531006,0.87109375
0.6563911437988281,0.80859375,0.5551714897155762,0.849609375
0.5101655721664429,0.849609375,0.5394463539123535,0.837890625
0.48781606554985046,0.8525390625,0.44292545318603516,0.869140625
0.5215741395950317,0.837890625,0.5598413348197937,0.845703125
0.5228384733200073,0.8583984375,0.5192509889602661,0.8623046875
0.5003008842468262,0.8623046875,0.37147486209869385,0.8994140625
0.4902423918247223,0.85546875,0.48239216208457947,0.8759765625
0.5720776319503784,0.8369140625,0.4920513927936554,0.865234375
0.4672279953956604,0.8701171875,0.4188273251056671,0.880859375
0.39534392952919006,0.880859375,0.5356731414794922,0.8544921875
0.4242522120475769,0.8740234375,0.49004024267196655,0.8671875
0.4709637761116028,0.865234375,0.48011332750320435,0.865234375
0.44638001918792725,0.8681640625,0.49413546919822693,0.8583984375
0.46645498275756836,0.876953125,0.5422685146331787,0.8505859375
0.29129165410995483,0.9111328125,0.5723163485527039,0.8408203125
0.4506368935108185,0.8720703125,0.5317692756652832,0.853515625
0.400791734457016,0.8642578125,0.5014917254447937,0.859375
0.3432613015174866,0.892578125,0.4899595379829407,0.85546875
0.36418959498405457,0.8896484375,0.514560341835022,0.873046875
0.3726501762866974,0.8828125,0.5457420349121094,0.85546875
0.3545457124710083,0.88671875,0.4497651755809784,0.876953125
0.4041666090488434,0.875,0.4239848852157593,0.884765625
0.34635186195373535,0.9033203125,0.44931963086128235,0.8759765625
0.4201512634754181,0.8828125,0.4281901717185974,0.87890625
0.4011104702949524,0.890625,0.4669044315814972,0.87109375
0.49456560611724854,0.8544921875,0.4132651388645172,0.8955078125
0.4354821443557739,0.8681640625,0.46908655762672424,0.884765625
0.36971157789230347,0.8984375,0.4155012369155884,0.884765625
0.42816901206970215,0.8857421875,0.40898388624191284,0.88671875
0.43130064010620117,0.85546875,0.3877078890800476,0.8876953125
0.468467652797699,0.8720703125,0.42906031012535095,0.8759765625
0.40656161308288574,0.8828125,0.4309546947479248,0.890625
0.39118367433547974,0.880859375,0.37515419721603394,0.890625
0.3952820897102356,0.8876953125,0.4996326267719269,0.87109375
0.4095795750617981,0.8681640625,0.41168010234832764,0.8837890625
0.44307056069374084,0.857421875,0.5638560652732849,0.8603515625
0.4290773868560791,0.875,0.4406503140926361,0.8779296875
0.30618202686309814,0.904296875,0.4651442766189575,0.873046875
0.43363747000694275,0.8671875,0.5122864246368408,0.8623046875
0.39413130283355713,0.8837890625,0.49226969480514526,0.8603515625
0.43340009450912476,0.87109375,0.42892515659332275,0.888671875
0.32362842559814453,0.9033203125,0.4328848123550415,0.8740234375
0.3449128270149231,0.892578125,0.5083245635032654,0.8759765625
0.35683029890060425,0.89453125,0.435794472694397,0.8818359375
0.4711175560951233,0.84765625,0.4510010778903961,0.8779296875
0.32414737343788147,0.9091796875,0.5108999013900757,0.859375
0.39068707823753357,0.8876953125,0.3838987946510315,0.892578125
0.5215060114860535,0.8486328125,0.4270203113555908,0.880859375
0.39330995082855225,0.880859375,0.47230052947998047,0.875
0.40772467851638794,0.8828125,0.4585496187210083,0.8759765625
0.4287111759185791,0.87109375,0.39605844020843506,0.8876953125
0.4065591096878052,0.884765625,0.502214789390564,0.87109375
0.3690735697746277,0.8916015625,0.48354366421699524,0.8837890625
0.4363217055797577,0.87890625,0.3872957229614258,0.8876953125
0.37279409170150757,0.8857421875,0.39543789625167847,0.8935546875
0.4142393469810486,0.8876953125,0.4377472996711731,0.8779296875
0.40246960520744324,0.876953125,0.4719255268573761,0.8798828125
0.4287020266056061,0.8740234375,0.4626415967941284,0.869140625
0.36817172169685364,0.9013671875,0.40411925315856934,0.8876953125
0.32845139503479004,0.880859375,0.39452382922172546,0.8994140625
0.3214323818683624,0.90625,0.5066176652908325,0.8681640625
0.3452708423137665,0.8994140625,0.46402212977409363,0.8720703125
0.37397637963294983,0.89453125,0.31899088621139526,0.9169921875
