epoch,loss,accuracy
1,0.70098090171814,0.087158203125
2,0.594632863998413,0.109130859375
3,0.49963042140007,0.123291015625
4,0.442849576473236,0.134033203125
5,0.399925112724304,0.140625
6,0.373451143503189,0.146240234375
7,0.340575158596039,0.15234375
8,0.325778156518936,0.15234375
9,0.300375074148178,0.15771484375
10,0.289667367935181,0.16015625
11,0.27077043056488,0.16748046875
12,0.257392466068268,0.171875
13,0.244746670126915,0.174560546875
14,0.236106336116791,0.177490234375
15,0.224392488598824,0.1845703125
16,0.212565913796425,0.188232421875
17,0.205715954303741,0.186279296875
18,0.185295969247818,0.193115234375
19,0.180987507104874,0.19580078125
20,0.173334449529648,0.19970703125
