loss,accuracy,val_loss,val_accuracy
1.9294496558878,0.2652806043624878,3.264571590423584,0.17125000059604645
1.7563090573740654,0.3484445810317993,4.853283767700195,0.11625000089406967
1.6368081296852497,0.3965921401977539,4.396764831542969,0.17624999582767487
1.5764697973702464,0.4291073977947235,3.421501407623291,0.18250000476837158
1.5324547079292632,0.4387994408607483,2.4541555976867677,0.23000000417232513
1.5179293861011984,0.4542754292488098,1.9094958305358887,0.35874998569488525
1.467808805984949,0.47193998098373413,1.6977336311340332,0.40625
1.447841882668418,0.4802251160144806,1.6491165256500244,0.41999998688697815
1.4237774894519655,0.492730975151062,1.6637199687957764,0.4325000047683716
1.399458681622091,0.49476316571235657,1.6144703483581544,0.4424999952316284
1.3783168175527225,0.5038298964500427,1.60258113861084,0.46875
1.3595244184739705,0.5139909386634827,1.5759732341766357,0.44624999165534973
1.339008282195111,0.5166484117507935,1.619621410369873,0.45500001311302185
1.3221164717047367,0.5249335765838623,1.5818624591827393,0.4650000035762787
1.3107762250636394,0.5329060554504395,1.5936184120178223,0.45750001072883606
1.2949584528712978,0.5371267795562744,1.6075366020202637,0.4637500047683716
1.28354149085014,0.53806471824646,1.5879096221923827,0.45124998688697815
1.2762875755596892,0.5438486933708191,1.6172085475921631,0.4350000023841858
1.2649678689568458,0.5499452948570251,1.5603042984008788,0.4637500047683716
1.2442448261251147,0.5505706071853638,1.5908902072906494,0.4699999988079071
