loss,sparse_categorical_accuracy,val_loss,val_sparse_categorical_accuracy,f1_score
1.8229594275082057,0.24975350499153137,2.1091744877186485,0.1932176649570465,
1.0346948004549388,0.589923083782196,1.5854279430882787,0.6585173606872559,
0.6891388474919344,0.7345691323280334,0.8533454016556123,0.7815457582473755,
0.5054203567949656,0.8111812472343445,0.4270359800441032,0.874605655670166,
0.37911439248735535,0.8606783747673035,0.2784946273177956,0.9100946187973022,
0.33929955532649075,0.876355767250061,0.21863580652591935,0.9313880205154419,
0.27985835575512047,0.9034706950187683,0.16852458117512123,0.937697172164917,
0.22710952081052163,0.9191480875015259,0.1442416673202996,0.9542586803436279,
0.20924988247673085,0.9295010566711426,0.12595579338374574,0.9637224078178406,
0.18332180467360215,0.9348254799842834,0.09188850896215589,0.9755520224571228,
0.16085189934419566,0.9434036612510681,0.08997920578586566,0.9747633934020996,
0.1485470843030677,0.9506014585494995,0.0777122255191442,0.9755520224571228,
0.15242238395655092,0.9477420449256897,0.07384432114261182,0.9747633934020996,
0.12599680651940906,0.9548412561416626,0.09932362563226502,0.9692429304122925,
0.12413274660027725,0.9586866497993469,0.06689021000726741,0.9763407111167908,
0.11618769135354798,0.9600670337677002,0.06153134066223722,0.9794952869415283,
0.10853866633050566,0.9625320434570312,0.0889477750480363,0.9716088175773621,
0.09125789605430763,0.9697298407554626,0.05436962748927649,0.9858044385910034,
0.09495146219381517,0.9659830331802368,0.05488040084342475,0.9850157499313354,
0.09256473370373919,0.9676592350006104,0.04996944905173515,0.9834384918212891,
