loss,accuracy,val_loss,val_accuracy
0.45362889766693115,0.865234375,0.5187335014343262,0.8466796875
0.47297951579093933,0.845703125,0.40436115860939026,0.8798828125
0.4210568964481354,0.869140625,0.44154515862464905,0.87890625
0.3895104229450226,0.88671875,0.41600608825683594,0.8720703125
0.4692379832267761,0.865234375,0.41847512125968933,0.8896484375
0.3837616443634033,0.8994140625,0.4735548496246338,0.873046875
0.3788638114929199,0.8984375,0.4414674639701843,0.8818359375
0.3241882622241974,0.904296875,0.376705139875412,0.90625
0.3718527555465698,0.8935546875,0.4296705722808838,0.8701171875
0.43314215540885925,0.8701171875,0.5056905746459961,0.861328125
0.38695383071899414,0.890625,0.3206086754798889,0.9052734375
0.499085009098053,0.8505859375,0.34348613023757935,0.896484375
0.3876373767852783,0.87890625,0.41855576634407043,0.880859375
0.41440922021865845,0.8740234375,0.47399023175239563,0.876953125
0.37480443716049194,0.8916015625,0.5049149394035339,0.8544921875
0.3432440161705017,0.896484375,0.39637523889541626,0.8876953125
0.3442959487438202,0.896484375,0.44455814361572266,0.875
0.3495596647262573,0.90234375,0.3585176467895508,0.8955078125
0.37184950709342957,0.8837890625,0.427071750164032,0.8896484375
0.34075912833213806,0.890625,0.4557686448097229,0.8798828125
0.31726449728012085,0.9111328125,0.42458808422088623,0.8798828125
0.3460387885570526,0.900390625,0.4213342070579529,0.8828125
0.43387293815612793,0.8779296875,0.5151139497756958,0.876953125
0.40464431047439575,0.8837890625,0.509036660194397,0.8671875
0.40033388137817383,0.88671875,0.4095527231693268,0.892578125
0.3550729751586914,0.9013671875,0.37109988927841187,0.8984375
0.393202006816864,0.880859375,0.4232161045074463,0.884765625
0.34125253558158875,0.89453125,0.4178183674812317,0.888671875
0.3730420470237732,0.900390625,0.49003520607948303,0.859375
0.4309864640235901,0.8740234375,0.4506639242172241,0.87890625
0.33947762846946716,0.8984375,0.40953317284584045,0.8984375
0.397430956363678,0.8837890625,0.4091811180114746,0.8955078125
0.31297028064727783,0.912109375,0.38597971200942993,0.89453125
0.35633620619773865,0.890625,0.49095064401626587,0.8671875
0.3342411518096924,0.900390625,0.4010566473007202,0.8779296875
0.4081694483757019,0.875,0.4961160123348236,0.8681640625
0.41335856914520264,0.8759765625,0.4481208920478821,0.8896484375
0.37227702140808105,0.89453125,0.42040860652923584,0.8818359375
0.3538965582847595,0.904296875,0.4765048623085022,0.880859375
0.4162950813770294,0.8740234375,0.3392537236213684,0.9013671875
0.33439090847969055,0.9033203125,0.3545467257499695,0.8916015625
0.30951642990112305,0.9111328125,0.4255344867706299,0.8896484375
0.3459319472312927,0.8984375,0.41209423542022705,0.8896484375
0.3058744966983795,0.9033203125,0.424282968044281,0.8857421875
0.38989031314849854,0.8818359375,0.40227949619293213,0.8876953125
0.3256451189517975,0.9140625,0.4222329556941986,0.9013671875
0.2951359748840332,0.90625,0.4564923048019409,0.884765625
0.31014734506607056,0.9013671875,0.40528103709220886,0.8896484375
0.290599524974823,0.9111328125,0.3827146589756012,0.9033203125
0.3337078392505646,0.8916015625,0.4263373017311096,0.88671875
