\begin{tabular}{lrrrrrrrrrrrr}
\toprule
number &        01 &        02 &        03 &        04 &        05 &        06 &        07 &        08 &        09 &        10 &        11 &        12 \\
track\_id &           &           &           &           &           &           &           &           &           &           &           &           \\
\midrule
2        &  0.883210 &  0.668069 &  0.524087 &  0.490960 &  0.493515 &  0.505337 &  0.508059 &  0.507593 &  0.440306 &  0.411464 &  0.450871 &  0.605162 \\
3        &  0.525373 &  0.515373 &  0.516092 &  0.495411 &  0.486615 &  0.530408 &  0.712591 &  0.827842 &  0.612929 &  0.536088 &  0.564723 &  0.504494 \\
5        &  0.535632 &  0.613613 &  0.521669 &  0.485778 &  0.525744 &  0.517949 &  0.566337 &  0.624896 &  0.669948 &  0.580517 &  0.517042 &  0.490671 \\
10       &  0.519918 &  0.627571 &  0.541022 &  0.541706 &  0.479906 &  0.633995 &  0.868110 &  0.724184 &  0.613500 &  0.572776 &  0.613340 &  0.548306 \\
20       &  0.443509 &  0.506024 &  0.523716 &  0.406247 &  0.404485 &  0.468872 &  0.530910 &  0.570118 &  0.476630 &  0.552855 &  0.588196 &  0.468736 \\
\bottomrule
\end{tabular}
