loss,accuracy,val_loss,val_accuracy,f1_score
2.2235441438962056,0.22260434925556186,2.1822495079040527,0.1837500035762787,0.0
1.8313924082558808,0.30795684456825256,2.4157086753845216,0.1537500023841858,0.0
1.7486065359288536,0.3504767715930939,2.752953701019288,0.1550000011920929,0.15625
1.663192855150826,0.37892761826515203,2.4296242141723634,0.20999999344348907,0.1875
1.6064320707649151,0.4194153547286987,1.896809558868408,0.32249999046325684,0.15625
1.5767432377266477,0.433171808719635,1.7143820571899413,0.3912500143051148,0.3125
1.5376382933867545,0.4470845758914948,1.6054516696929932,0.41874998807907104,0.25
1.5059446269727526,0.4628732204437256,1.5524270248413086,0.46875,0.3125
1.4726828242794356,0.4764733612537384,1.5889487552642825,0.4424999952316284,0.34375
1.442168708534861,0.4788182079792023,1.5894542312622066,0.4550000131130218,0.28125
1.431772359278084,0.4899171590805054,1.6048183155059814,0.4387499988079071,0.375
1.4017635557415598,0.4992965459823608,1.577023983001709,0.45625001192092896,0.375
1.3874759453804362,0.5063310861587524,1.5019506645202636,0.4612500071525574,0.375
1.380307293001592,0.507269024848938,1.5068766784667968,0.4762499928474426,0.34375
1.3488131135967685,0.5213381052017212,1.4953672885894775,0.4850000143051148,0.34375
1.330904200167624,0.5247772336006165,1.54547438621521,0.4749999940395355,0.375
1.3223367300707418,0.5264967679977417,1.5359910202026368,0.4824999868869782,0.3125
1.297004020379934,0.5457245707511902,1.5439608764648438,0.4550000131130218,0.375
1.2706622121407498,0.5483820438385011,1.5699084186553955,0.4837499856948853,0.34375
1.2692423182315,0.5510395765304565,1.4985610389709472,0.4962500035762787,0.28125
1.2458728838660147,0.5563545227050781,1.5096390628814698,0.5074999928474426,0.34375
1.241310980332276,0.5601062774658203,1.5686560153961182,0.4912500083446503,0.40625
1.2102834405014995,0.5635454058647156,1.5472263431549071,0.481249988079071,0.34375
1.2142038998127505,0.5669845342636108,1.5263836097717285,0.4987500011920929,0.34375
1.1969884487918079,0.5762075781822205,1.4991353607177735,0.5037500262260437,0.375
1.177022465024122,0.5819915533065796,1.5575820350646972,0.5049999952316284,0.3125
1.1668569421291128,0.5849617123603821,1.5231970691680907,0.518750011920929,0.40625
1.1500178162932713,0.5848053693771362,1.5967439079284669,0.487500011920929,0.40625
1.137274118947185,0.5902767181396484,1.5714703464508055,0.4950000047683716,0.4375
1.1234893606326646,0.6013756394386292,1.5958374977111816,0.4962500035762787,0.40625
1.1058869685011579,0.6041894555091858,1.6133016109466554,0.4975000023841858,0.375
1.1037849703859273,0.6027825474739075,1.6033416938781742,0.5,0.40625
1.0783733942927245,0.6152884364128113,1.6435301303863523,0.48124998807907104,0.40625
1.0686036908143903,0.6193528175354004,1.5424064254760743,0.5074999928474426,0.34375
1.0657125174002255,0.6187275052070618,1.6299381351470947,0.4975000023841858,0.40625
1.048932154606856,0.6227919459342957,1.5890322208404541,0.4950000047683716,0.40625
1.0274626492373138,0.6351414918899536,1.6549614906311034,0.5024999976158142,0.40625
1.0060048832527375,0.6404564380645752,1.6577889347076415,0.5112500190734863,0.375
0.9946971479311238,0.6428012847900391,1.6083251762390136,0.48750001192092896,0.4375
0.9749238237992514,0.6437392234802246,1.6245597171783448,0.4962500035762787,0.34375
1.1094882786227371,0.5980928540229797,1.6394873905181884,0.4900000095367432,0.40625
1.084705661307355,0.6045020818710327,1.585896224975586,0.5037500262260437,0.3125
1.0791063914918444,0.6185712218284607,1.5863062381744384,0.4862500131130218,0.40625
1.0591443601820418,0.6262310743331909,1.6389055347442627,0.4912500083446503,0.34375
1.0523206316643958,0.6218540072441101,1.5922823715209962,0.5074999928474426,0.4375
1.0420550116993998,0.6226356029510498,1.5846165657043456,0.4937500059604645,0.40625
1.0242472243379834,0.626387357711792,1.618761510848999,0.4824999868869782,0.40625
1.0090656552964008,0.6310770511627197,1.6301100158691406,0.4925000071525574,0.40625
0.9932926071236166,0.6417070627212524,1.7348400211334232,0.4737499952316284,0.375
1.005006991505008,0.6376426219940186,1.678017110824585,0.4900000095367432,0.375
0.9881003684264824,0.6443645358085632,1.6367815494537354,0.4912500083446503,0.34375
0.9795860272563024,0.646553099155426,1.681215581893921,0.4987500011920929,0.40625
0.9890034271438216,0.6460841298103333,1.7024456310272216,0.4850000143051148,0.46875
0.9434328108201347,0.657183051109314,1.7581723880767823,0.5062500238418579,0.375
0.9465367805963384,0.6620290875434875,1.6894975662231446,0.5087500214576721,0.4375
0.9426533317163398,0.6620290875434875,1.713389873504639,0.4975000023841858,0.34375
0.9107701217958624,0.6684383153915405,1.7979265308380128,0.4962500035762787,0.4375
0.9144893078780164,0.6743786334991455,1.7928342819213867,0.4912500083446503,0.40625
0.9033513224570291,0.6690636277198792,1.6668494987487792,0.4912500083446503,0.40625
0.8923809976527071,0.6693762540817261,1.735574712753296,0.4962500035762787,0.4375
0.8733986809474706,0.6807878613471985,1.8199097919464111,0.49000000953674316,0.40625
0.8608411172041208,0.6882913708686829,1.7987709045410156,0.5049999952316284,0.34375
0.8442806140583009,0.6934500336647034,1.8538547039031983,0.5112500190734863,0.375
0.8466101911676588,0.6912615299224854,1.7465304660797119,0.5074999928474426,0.34375
0.8262862539093849,0.6993903517723083,1.9333125782012939,0.47874999046325684,0.4375
0.8213310571914728,0.6998593211174011,1.8297855758666992,0.5024999976158142,0.28125
0.8259776995408269,0.7051743268966675,1.832716598510742,0.4737499952316284,0.28125
0.8163919000210419,0.6984524130821228,1.9533137416839599,0.5024999976158142,0.375
0.8048191653837985,0.7057995796203613,1.823511438369751,0.4724999964237213,0.375
0.7929593779546164,0.7186180949211121,1.8050892066955566,0.48750001192092896,0.4375
